,oracle,0.4,0.3,0.2,0.1,x,y
242,0,0,0,0,0,-3.7061059830073235,-3.9834286394623994
30,0,0,4,0,0,-6.008690671663927,-0.5393297423108119
201,0,0,0,0,0,-3.850005227532371,0.5344392262084334
252,0,0,1,0,0,-5.521175978747845,-0.8719027152904879
210,0,0,5,0,0,-3.605742332780708,0.8733368870968864
9,0,0,0,0,0,-4.530398447523648,-1.2811436089525872
203,0,0,0,0,0,-3.7782202662682005,0.08838838377244493
130,0,0,0,0,0,-6.7832888866760435,-0.7602245314480314
224,0,0,0,0,0,-6.173943733741288,-0.16558394854033162
122,0,0,0,0,0,-5.463519453570683,-2.514005709494965
140,0,0,2,0,0,-5.165810985848709,1.5302590675736996
93,0,0,0,2,0,-6.656575009142676,0.0782476188914616
102,0,3,0,0,4,-4.039802710853612,-2.4254340664662517
86,0,0,5,0,0,-3.714754082145963,-0.9765383899502202
112,0,0,2,0,0,-7.311195521666937,0.09489299130049757
286,0,4,0,5,0,-4.944491417134776,1.1518536115990554
123,0,0,2,5,0,-3.27150265282532,1.6194278880552315
211,0,0,4,0,0,-8.141904606809216,0.18558287135025986
63,0,3,0,0,0,-5.652730327582456,2.773895592719013
204,0,1,2,1,0,-5.2775805065140124,-1.2114727314245335
51,0,0,0,0,0,-6.9057274977286,1.4540950622370168
84,0,0,0,1,0,-3.217955311471547,0.47541391788727444
245,0,0,0,0,0,-6.5449029249634645,-0.5249150468836571
248,0,5,5,4,0,-5.987829450207506,-0.7713509489099832
152,0,0,0,0,0,-4.000425376952128,-0.6910796810828299
16,0,0,5,0,0,-6.331678621445169,-2.9711947023358904
172,0,5,0,0,0,-5.661383948438887,-0.4205332427767636
153,0,1,3,0,0,-7.00138770710413,-2.0200762586963332
289,0,2,2,0,0,-5.196581017312118,1.6996198193395828
39,0,0,0,0,0,-5.467328798191059,0.08424801334461815
229,0,0,2,0,0,-4.701049704655302,-0.07590531144249885
107,0,0,3,0,0,-6.416669383877376,-0.6150745398038227
164,0,2,0,0,0,-6.057050413784351,1.4148910874542422
72,0,1,5,0,0,-1.4252828377040867,1.4167192304856209
264,0,0,4,0,0,-8.554380357839904,1.2960784507464718
108,0,0,0,0,3,-5.025530620792161,0.5687276033326227
212,0,0,0,0,0,-5.195160431290556,0.14092984407835307
230,0,4,0,1,0,-5.7762785637656044,-1.4682447890381547
99,0,0,5,0,0,-1.7551460760789652,2.004791924154588
156,0,0,0,0,0,-6.690238713135115,-1.0960166292972373
253,0,3,0,0,0,-7.448951789351742,-2.351651586462681
100,0,0,0,0,0,-5.5537727569136655,-0.35906876636388957
68,0,1,0,2,0,-4.135113775077588,-0.3124481333669923
81,0,0,5,0,0,-3.575868789611359,0.13132686207778635
150,0,3,2,0,0,-6.959790277602975,2.487196019427282
119,0,0,0,4,0,-4.360611903832849,1.0153620525453684
117,0,0,0,2,0,-6.734273647732869,1.1717971525649902
268,0,0,1,3,2,-5.392468168566351,-0.2733671756849144
20,0,2,0,0,0,-6.572829447600639,-2.130026905768463
114,0,0,0,2,0,-5.895974103448044,-0.3568825946040105
141,0,0,0,3,0,-6.038074771676587,2.3045655813686965
240,0,0,0,1,0,-3.8428910769847318,1.5441582431741507
291,0,0,0,0,0,-6.709703683140161,1.1774362818607502
8,0,0,0,0,0,-2.758881390263591,-0.3077373956487013
221,0,0,4,0,0,-5.128896150457419,0.2914394070686575
177,0,0,0,0,1,-5.978440399902529,-0.7817839684516663
282,0,0,0,0,0,-6.093566988192044,0.29483610109317737
178,0,1,0,0,0,-7.764604325234973,-0.71696100606073
142,0,0,0,5,0,-4.570484466661581,0.9132657517131761
294,0,0,0,2,0,-5.588583497224455,-4.56921458219989
222,0,3,0,0,0,-3.6862508576190036,-0.17266120273084007
6,0,0,2,0,0,-3.85844341227951,0.18251252473924262
219,0,0,0,0,0,-3.799152794853505,0.11739026274249204
83,0,0,2,3,0,-6.500323021084347,-2.3171566451664174
44,0,5,0,0,0,-6.606128932265814,1.5816775903967049
285,0,0,0,0,0,-4.3193271310464745,-2.7446106165067974
13,0,2,0,0,0,-4.931362224047831,-0.2807757750387504
188,0,3,2,0,0,-4.035028302405609,-2.355935112950179
73,0,0,1,0,0,-6.369233338166238,1.6755244321437794
173,0,0,0,4,0,-5.547040316587528,0.23505578290854595
24,0,0,0,0,0,-7.420846771336928,-0.31911042032095305
256,0,4,0,0,0,-6.998317481891752,-2.9529370346790302
273,0,5,0,0,0,-3.3827040444286434,-3.8387769995161447
22,0,0,0,0,0,-5.76447827262748,-0.6571114524167796
193,0,3,4,0,0,-6.478266106526226,-2.2077525111953804
154,0,0,5,1,0,-3.9593402709648013,-0.23936015721940035
213,0,1,0,0,0,-3.585430869016223,-4.109515750784334
52,0,0,0,3,0,-6.75968510767124,2.915431778473939
161,0,5,0,1,2,-4.588225463414091,-1.3363726244932919
283,0,1,0,0,0,-4.467863460330173,0.9253298315899181
198,0,0,3,0,0,-3.7131141135614953,1.7116527999863602
205,0,0,0,0,0,-7.169802049345082,1.2004469240100413
223,0,1,0,0,0,-4.313876590668514,-1.4469180206005925
430,1,1,1,1,1,6.731276045741029,0.25875662473929884
446,1,5,1,1,1,6.395612744166675,-0.2629746034905299
535,1,2,1,1,1,3.4527763095271133,-2.1449868880281726
314,1,1,1,1,1,4.915800469326864,-0.002077564102643589
574,1,4,1,1,1,6.832077439188797,-0.289262742815947
438,1,2,1,1,1,4.66628448463562,-1.2883798617115074
589,1,1,1,1,1,4.0616644473361205,1.4882052427777588
516,1,0,1,1,1,4.689582934164063,-1.0171431911793705
476,1,2,1,3,1,7.1020172469379395,-0.6155726904868059
455,1,5,1,4,1,3.7737603535756605,-2.1020209395589657
377,1,3,2,1,1,4.977713444967946,1.232108905537217
552,1,1,1,1,1,4.150340219401671,-0.4615369160505026
325,1,4,1,1,0,5.43035673200502,-3.4808914136861127
415,1,1,1,1,1,5.487304423694279,1.4956769711876392
458,1,1,0,0,1,4.916971177966416,-0.39590602288903176
598,1,3,1,1,1,5.0281876876613865,-0.8906661716680012
424,1,5,1,1,1,3.875464482945655,0.049213121420567704
407,1,1,0,1,1,5.702577851415578,2.60381849652857
536,1,1,4,1,4,4.907542921741678,-2.149103234901162
459,1,1,1,2,1,5.5292249097415676,-0.229161635318113
513,1,3,1,1,1,3.431713164395801,-1.6272840891921678
568,1,1,1,1,1,5.32576944895742,0.11731677163822826
387,1,1,1,1,1,4.452417175180614,-2.6869913220617754
514,1,1,1,1,1,6.675957973304997,-0.7783503066372781
358,1,4,1,1,1,3.7952879189875572,-0.6965065371532375
549,1,5,4,1,1,5.522253852862713,0.994887134518761
583,1,1,1,1,1,7.447396141298407,0.5666387545960768
453,1,1,1,1,1,4.21763048300994,-1.777029885617328
313,1,1,1,1,1,5.275008798886402,2.506414549183286
555,1,1,1,1,1,4.906920311302499,1.8887506944162207
562,1,1,0,1,1,6.382112596715872,0.6912217157232458
558,1,1,1,4,1,4.747678665849389,0.5668651526077126
530,1,1,1,1,1,5.314774216884583,-1.8609368993343414
420,1,3,2,1,1,5.359374139784587,-0.5547017494557048
561,1,1,1,1,2,3.4777611383983382,-0.9034977803742932
538,1,1,1,4,1,5.910667507874069,-1.5722556102382097
504,1,1,2,1,1,4.926013894778641,0.35855040187014736
474,1,1,1,1,1,5.760858426664423,-0.17434455058072365
343,1,1,0,1,1,8.175186532225514,-2.4163176051749007
393,1,1,3,1,1,5.793567857501648,0.6339429325632384
399,1,3,1,1,1,4.363005046350701,-1.244946896306943
371,1,1,5,1,1,7.632479230613088,-0.199482633464388
401,1,4,1,1,1,4.913795722301908,-0.5868255782610243
468,1,4,1,2,1,3.4897523715515244,2.5223650744009913
323,1,1,1,3,1,6.543403238892282,-0.10843051134000736
376,1,3,1,3,1,5.672292926634968,2.5442723592422407
563,1,1,1,5,1,6.38569484047092,-0.19885202198057705
575,1,0,1,1,1,4.950021075732271,-2.296205246099239
448,1,1,1,1,1,3.7151760376486855,-2.3123810995076814
471,1,1,4,1,1,5.7216726895832535,4.139032671032373
599,1,1,1,3,1,1.9821795211329363,0.8845554083620859
353,1,4,1,1,1,6.404668588746674,-0.052642765304505575
509,1,2,0,1,1,5.32244838593914,0.14582884800437704
524,1,3,1,3,1,5.049634626708141,-1.2812418912215318
385,1,5,1,0,2,4.251475043008726,0.03202683576532291
553,1,1,1,1,2,5.40353610976437,0.787376795468824
413,1,0,1,1,1,5.4950526717654675,3.3389164976073884
409,1,0,5,1,1,3.721121229244029,0.03443963341192717
317,1,5,2,1,1,4.319293938421998,0.6048968102448702
346,1,1,1,2,1,2.746405145927431,-2.6665004321005594
395,1,1,1,1,1,3.863193709362251,-0.07512614142723315
447,1,4,1,2,2,2.867120192539345,2.996934119625007
469,1,1,1,1,1,3.8115700072907828,-0.7974088620171824
354,1,4,1,4,1,6.897616757133148,0.317245519097817
381,1,2,3,1,1,6.084650740606698,0.036918187871867424
593,1,5,0,1,5,5.376497174012486,1.582136887770424
531,1,1,1,1,1,5.3336947460129105,-0.13256328479873244
586,1,1,5,1,1,6.156009581695015,-0.195659600674991
440,1,1,1,1,1,6.98969246354854,-1.446909636309396
388,1,1,1,1,1,4.912120173299209,-0.47631464089529885
585,1,1,1,1,1,5.289295933325579,-1.7355259212238017
442,1,5,1,1,1,3.8568282321162526,-1.331670204953903
410,1,1,5,1,1,4.983281582237238,0.01724834980509356
592,1,1,1,1,1,2.161457160023988,-0.2667197155545188
493,1,0,0,1,1,4.391087409217275,1.0865527573049465
449,1,2,1,1,1,8.891636881652229,-0.6060484407764057
320,1,1,1,1,1,4.8644269890845795,2.0513958597100705
301,1,1,4,0,3,3.583447263763559,0.3571547217484682
588,1,2,1,1,1,5.631377426263485,0.3699032793920016
517,1,3,0,1,1,6.13098720046772,1.5979732381469922
457,1,1,0,4,1,3.1600675109050766,1.4511692250753525
487,1,3,5,1,1,8.021090232377702,-0.4601486640405068
466,1,1,1,1,1,5.462496868939018,-2.0671252005961156
711,2,2,2,2,2,3.6474553110987684,3.793241232105859
825,2,2,5,2,1,3.4863637605272677,3.7199363322853314
615,2,4,3,2,2,3.558644660567589,4.7186428361473425
755,2,2,0,2,2,0.7171393141237037,5.885829476243491
629,2,2,2,2,2,1.1161565202347754,3.327302490693911
645,2,1,2,0,2,2.7534923601121695,2.706599500370145
605,2,2,2,2,2,2.804894780850235,4.6070431834214505
794,2,3,2,2,2,3.389837451450645,4.837122820927998
660,2,1,3,2,2,1.5125975625192514,2.933040460385817
857,2,0,4,2,2,0.746215898777568,2.586859616690326
766,2,2,2,2,2,0.18069827568646302,4.425654331575018
882,2,2,2,2,2,2.289820329850545,5.946013133639336
780,2,3,2,2,2,4.381642285618051,3.035113597316892
701,2,2,2,2,2,-0.04774431583775307,6.920647964230537
878,2,3,2,2,2,1.487482853606179,4.036436371206671
863,2,4,5,2,2,2.8990540587834457,3.6155246594655357
886,2,2,1,2,2,1.7256425287145736,5.344372638034239
618,2,0,2,2,2,3.4408358366858423,4.3387607179040355
611,2,5,2,2,2,4.66198784146,3.4102702078688307
665,2,2,2,4,2,3.1612409147282245,2.8383115468437614
824,2,1,4,2,2,2.3076299378477807,5.742300705338676
685,2,3,3,2,2,3.156255440607405,4.364752323103738
642,2,2,4,2,2,0.86680591045155,2.198197721473916
719,2,5,1,2,2,2.609985631200322,5.80254678350126
614,2,2,3,2,2,0.8652597066788776,4.452271086095149
662,2,0,2,3,2,0.8001295652890028,3.669886330269467
765,2,2,2,2,2,-0.3767103447264031,5.266681459906879
817,2,2,2,2,2,1.4837053152989281,3.62093399193759
894,2,2,2,2,2,2.0206227310033005,1.2329482545579307
649,2,0,0,2,2,2.2388757025605535,1.0621765672951922
704,2,0,2,2,2,5.676844578612614,3.68319102455272
804,2,3,1,2,1,1.3994767774798649,1.7915156073002656
702,2,2,0,2,3,1.279636937392665,3.215123584922657
705,2,4,2,2,4,1.8193900420033855,1.7810260300551195
601,2,2,2,0,2,4.377230791023527,4.971951686514832
788,2,1,2,2,2,1.984915292196478,5.857010403937659
600,2,1,2,2,2,0.6554454161717298,1.0559019862888719
803,2,2,2,2,2,3.890853267563224,3.849409744897951
633,2,2,5,2,2,-0.3737417169726376,7.36540284187396
860,2,4,2,2,2,0.7405513292402128,1.9476323569924139
769,2,2,2,2,2,4.610944168842996,3.5597724176659336
673,2,2,2,2,2,2.72063674417668,2.5477209041393425
661,2,5,2,2,2,1.4177687112766257,3.9101079959933642
830,2,5,2,2,2,2.4786776001294237,4.460897170758386
809,2,3,2,0,2,3.5128959302901555,4.791396074161474
648,2,2,3,2,2,2.310906120460428,4.461598862019148
666,2,1,2,2,2,2.1573607476282692,4.200869383923214
741,2,4,2,2,2,0.19439721170033097,4.625565254451406
625,2,2,2,1,2,0.8295433902476907,4.406669194670072
697,2,2,2,2,2,1.9410980134430702,2.576600783725355
669,2,2,4,2,3,0.5413956659712535,6.019331609833451
626,2,2,2,2,2,3.5675350632540357,4.898559289564276
887,2,4,2,2,2,2.011426247477237,5.330297029874141
772,2,1,2,2,3,1.3952175397257,5.424108285689828
881,2,2,2,2,3,-0.6957469230934277,2.796620242403784
837,2,2,2,2,2,2.5764851078168682,5.514567782217572
834,2,1,2,0,2,2.0283831558232923,3.876948770281774
785,2,2,2,2,2,0.4823388738417673,4.127452205556562
721,2,2,2,5,2,3.3190849128700552,4.953136789830993
681,2,2,2,1,2,0.8408421755326969,5.323084899044516
856,2,2,2,2,2,0.34665471363936406,3.9631758645364314
635,2,2,4,2,2,-1.1725840227817113,6.10804815808663
608,2,4,2,2,4,3.1279198815157936,4.844484577879191
692,2,2,1,2,2,2.583640953298581,5.756561596930732
888,2,5,2,2,2,3.6555409361932254,4.60079602689806
784,2,2,2,5,2,3.2757960252851572,2.7413137141010893
855,2,4,3,2,2,3.0487042305780405,3.551860599145096
798,2,3,2,2,2,0.6141319762849968,6.118227547447946
871,2,4,2,2,2,3.2030776081107737,1.2302020275029903
640,2,2,2,2,2,1.8723265962208915,3.1535484500467597
884,2,2,2,1,2,0.7770865082953122,6.701820986212803
880,2,3,2,2,2,2.6013285186561816,3.9855141452006375
709,2,2,3,2,2,-2.2033041975875696,2.217363367625471
801,2,2,2,2,2,0.4909447131194127,2.767675261595301
877,2,4,2,2,2,3.303509514228142,4.276271897055319
644,2,2,2,3,2,2.1488072937972538,6.364448458941577
621,2,2,2,2,2,2.801301756268657,4.476827645857273
814,2,4,2,2,2,0.03072548817531251,6.122311203883633
691,2,2,2,0,2,3.327781311813391,6.210647222707607
689,2,2,5,2,2,1.275125686281339,4.003856773647265
865,2,2,2,2,2,0.543244002763414,6.139475291180541
815,2,0,2,2,2,2.2347143854194487,3.675484032556411
620,2,4,1,2,2,5.4811997589204475,4.175636308233163
942,3,3,3,3,2,-4.248279051225093,-3.741491291156217
956,3,5,3,3,3,-2.939892815178337,-4.491632375944625
1105,3,3,2,4,4,-4.2736093090404905,-1.555749935151507
1069,3,3,4,3,3,-3.7473174278791643,-4.647121511657028
1013,3,3,2,3,3,-3.2210304968742656,-2.410290557599338
1138,3,3,3,3,3,-3.0662095782717094,-1.5723110136520382
1124,3,3,5,3,3,-3.159979010490338,-4.739821580665747
1001,3,3,3,3,3,-2.9307974115664726,-5.437561720339842
1120,3,3,5,1,3,-5.501669839326356,-3.1179433768902807
1004,3,3,1,3,3,-1.9446216680349175,-2.6062822783469635
1135,3,3,0,3,3,-3.0548959393743704,-4.126334944791091
970,3,3,3,3,3,-1.6900322458943817,-2.2003957353774433
1066,3,4,3,3,3,-0.155726657050284,-5.199679207578656
1101,3,3,2,3,3,-1.35212752765328,-4.190600744257775
1051,3,3,3,3,1,-2.385672332643463,-5.199390249505735
993,3,5,3,3,4,-2.373219445174011,-4.060028088027449
1148,3,4,3,3,3,-1.3019922994840054,-4.841471504697635
939,3,3,3,3,3,-1.5687156286518527,-3.183782871462988
1033,3,3,3,3,3,-4.79614154345785,-1.770401119800423
1142,3,3,2,3,3,-2.641369379439601,-4.911831169422931
1024,3,3,3,3,3,-5.544196900247314,-2.904724703305578
934,3,5,3,3,3,-3.090543741588508,-5.066560895186667
1056,3,3,3,4,3,-3.095492233184324,-6.369895794506686
1157,3,0,2,3,3,-2.510437365409514,-1.775307058039279
1152,3,3,3,3,3,-2.30779668383829,-4.0697217340493355
982,3,3,3,3,1,-1.3240748014677146,-6.345856952259649
953,3,3,1,5,3,-2.897101158779009,-4.408414151717621
980,3,1,5,3,3,-3.3124276546424944,-1.6384431437866427
978,3,3,4,4,3,-2.373299125190878,-5.860324504611656
918,3,1,3,3,3,-2.1925055950857346,-4.213668126264054
1092,3,3,4,1,3,-4.51868572911571,-2.1241452511848475
1109,3,1,3,3,3,-3.6718722576233103,-4.298072592506198
1111,3,3,1,3,3,-1.9806482013523763,-4.635682372824214
1074,3,3,3,3,3,-2.557386325047206,-5.64815268500095
1055,3,3,3,3,3,-0.4337451261800167,-1.8783774359064647
1110,3,3,3,3,3,-0.8702040417053465,-5.447659912096626
901,3,3,3,3,3,-0.8526483638260638,-1.8066787438293708
1143,3,3,3,3,3,-4.399974360340384,-4.051712569132597
1034,3,3,3,3,3,-3.6153280391704934,-1.9267271674102924
1015,3,3,3,3,3,-1.8846697267374946,-3.6844609500552807
1094,3,1,5,2,3,-4.553408597076742,-3.7874992526927045
1150,3,3,3,3,3,-3.402014675097168,-4.744912314594275
1158,3,4,3,0,3,-3.075123962196803,-5.26542340980389
1104,3,3,3,4,3,-3.332361597306001,-3.3636210728486944
1182,3,3,3,3,3,-3.9791421740230692,-6.188411095895988
1031,3,3,3,0,3,-1.5359437119466115,-6.335400898763891
976,3,0,1,3,3,-6.268397280292364,-4.944475640410272
1014,3,4,5,3,3,-2.9606300732076187,-4.171502739808565
962,3,3,3,3,3,-3.743693241817814,-2.1751334293855895
1006,3,4,4,3,0,-2.0345530868199924,-2.9666550000881013
933,3,3,3,3,3,-2.1688086325098457,-5.005188846590944
1087,3,3,4,3,3,-1.7853889037783288,-2.380103174286196
973,3,0,3,3,3,-2.98472172193189,-0.7025554919942611
1169,3,3,3,3,3,-3.7100413882537184,-4.305356007210215
968,3,3,3,3,3,-3.7011615144388594,-5.290230077386995
914,3,3,4,3,3,-0.703601473456763,-3.861328396795287
1115,3,1,1,0,3,-1.3447443499074367,-4.862883992209177
1186,3,3,3,3,3,-5.699656772200116,-5.657035220808414
1177,3,1,3,3,3,-5.7078775329456315,-2.7544209919894125
915,3,3,1,3,3,-3.148512466926116,-5.575980754881234
955,3,3,3,3,3,-1.1133836737559426,-7.129952469130814
929,3,2,3,3,3,-3.793005988403233,-4.162005755171437
1134,3,4,3,5,2,-2.5691140312998106,-4.004314153988502
1178,3,5,3,3,3,-3.782544787421723,-2.8335890779866393
1079,3,4,3,3,3,-4.159788765335158,-6.234899512332238
1172,3,2,3,3,3,-3.1778799353251386,-3.2674441143555137
1184,3,0,3,3,3,-3.72208893607145,-1.904402048029386
930,3,5,2,3,3,-4.111300056306109,-4.912436725122243
912,3,3,3,3,3,-4.384234972495242,-6.177007747286538
1052,3,3,0,3,3,-0.7325409751735226,-1.4402976291085166
1012,3,3,3,3,2,-3.147241816808896,-5.329921390084168
947,3,3,3,3,3,-2.7737726905011093,-4.383206179281654
949,3,0,5,5,3,-2.5519295100119868,-2.6340314916550445
1042,3,5,3,3,3,-2.514965202779612,-6.054086686070736
1026,3,3,3,3,3,-4.330356489425814,-2.6825443634012043
967,3,3,3,3,3,-1.9836644496184244,-2.039224232378114
1018,3,3,3,2,3,-3.4289387272277594,-1.7546335097187593
1091,3,3,4,3,3,-5.140406528140487,-5.39885534484552
1037,3,1,0,3,3,-2.192344499468192,-3.274987222329142
1097,3,3,3,3,3,-3.9434710613869024,-2.3948912318935345
1136,3,0,3,3,3,-2.3707138373607877,-2.613348967062236
1170,3,2,3,3,3,-2.175214699055414,-3.9986501099933394
935,3,3,0,3,3,-1.9204977441940025,-4.372628960057558
1487,4,2,4,0,4,-1.7009043907917714,6.9186420869594905
1453,4,5,4,4,4,-2.1953347497000895,3.715873106782314
1249,4,4,5,1,4,-0.9925751419461353,2.5387488474355147
1253,4,4,3,3,4,-0.23325574294151008,0.5422497174347187
1476,4,4,0,4,4,-2.43219717909009,5.067677902145566
1306,4,4,4,2,4,-3.3260220946221293,5.851216053670092
1486,4,0,4,4,4,-2.2658699242840985,3.4306688190312102
1264,4,4,4,4,4,-2.06689908908836,4.390199357408152
1406,4,2,0,1,4,-2.7874091343709986,4.411625492923013
1451,4,3,4,0,3,-2.5726026308608487,3.77080830489687
1208,4,5,3,4,4,0.9276415184017206,5.85991082474104
1263,4,0,2,4,5,-0.9092376949693453,3.94164204000429
1302,4,0,4,4,4,-2.2657060749729854,2.6639062254077563
1364,4,1,4,1,4,-2.5941847966271743,7.381425548207444
1464,4,4,4,4,4,-1.7700672963013642,5.04119306220683
1265,4,2,1,4,4,-2.1047847473842762,4.375170860324689
1237,4,0,4,4,4,-4.314382170731435,3.397354386810249
1369,4,3,4,0,4,-0.23481955642420438,3.561108689262864
1363,4,5,1,4,4,-0.9800839908260668,0.7553535274058114
1357,4,0,4,5,4,-3.71597104939811,2.9206392161230736
1230,4,4,4,4,4,-3.402690814156316,4.572736014429076
1458,4,5,4,4,4,-2.4206716722011814,2.2295715904732143
1320,4,4,4,0,4,-1.1738170788459028,4.893134735145584
1496,4,1,5,4,4,-1.2998740243723472,4.241659483362517
1345,4,4,4,4,4,-2.2753861452058315,4.487798072030598
1484,4,4,5,4,4,-3.1087538005862427,3.911910709946592
1276,4,4,4,4,4,-1.8101467977038377,5.189510606046142
1447,4,4,4,4,4,-0.06103096848129663,6.272323440839509
1390,4,4,4,0,4,-3.661470351351545,4.352465789333578
1417,4,2,4,4,4,-0.37599157686340323,3.7756157474995073
1409,4,4,1,4,2,-2.590173681778495,4.004076309836021
1421,4,3,1,4,4,-2.680329651363162,2.512557462432969
1348,4,4,5,4,3,-0.9959112929111877,5.107910543489231
1296,4,4,4,4,4,-0.867425479616168,1.9051971436402644
1294,4,1,4,4,4,-2.066067346063912,6.9393430078086515
1482,4,5,2,4,4,-1.531049055479021,3.7098041758144786
1252,4,3,4,4,4,-2.2821346070744752,2.446378410707181
1340,4,1,4,4,4,-1.0069919503221467,3.488688384145794
1437,4,4,0,4,4,-1.795953173938435,2.7425332664519484
1466,4,4,4,4,4,-0.7668854648042933,3.6801771446922684
1488,4,4,4,4,4,-1.1435752402308192,5.608450970932137
1377,4,4,4,2,4,-2.0854685824666097,3.4057218328752747
1498,4,4,4,4,4,-3.3611989721304463,3.71139368830614
1329,4,2,4,4,4,-1.025255547980032,4.652183208191559
1310,4,3,4,3,4,-0.8996076976559455,7.017796394689842
1371,4,2,4,5,4,-3.5048986353558336,4.261944366720355
1385,4,4,4,4,4,-0.3465761531179634,2.954390391459725
1425,4,5,4,4,4,-0.9841311253754448,3.952133386548789
1274,4,4,4,4,2,-2.8326895182416747,3.7412765243395585
1370,4,4,4,4,4,0.5460197215209237,3.150095463043444
1326,4,3,4,4,4,-0.6705602080677979,3.9171115064055213
1250,4,4,4,4,4,-4.429526848059051,4.858940525807629
1495,4,4,4,4,4,-2.5108400524067935,2.045169875982378
1465,4,4,5,0,4,-2.4930915391049115,4.995947613289333
1206,4,4,4,4,4,-1.0496991463093994,3.086777323874303
1281,4,4,4,3,4,-0.01880842080812828,2.0619981234293085
1327,4,3,0,4,4,-4.250492563967856,2.7722437891094867
1448,4,4,5,4,4,0.4064894791234619,4.3121042944449455
1391,4,4,4,4,4,-1.0565006188147676,4.471050765470718
1207,4,5,0,4,4,-2.3391837046459343,6.88870860618929
1273,4,2,4,5,4,-0.648914142366229,5.337046159529416
1262,4,0,4,4,4,-2.989566870814505,4.711011800915545
1222,4,3,4,4,4,-2.614781807659729,3.3199938517922245
1403,4,4,4,4,4,-5.530460599535621,2.492283353564993
1351,4,1,4,4,5,-4.402761428111776,3.9431394082237956
1227,4,3,4,0,4,-3.033572644126957,3.1778692187911965
1317,4,4,4,4,4,-1.6330844580057922,2.8301151266124958
1485,4,4,4,4,4,-3.4257769181667954,3.304005365003734
1295,4,4,4,4,4,-0.5865285375845499,0.9923118600217773
1408,4,4,2,4,4,-3.1029435774244605,3.049017011024918
1493,4,4,4,4,4,0.9515945232145686,4.671524823613985
1383,4,4,4,4,3,-3.7466726808056965,2.0822292392189707
1454,4,4,4,4,4,-3.211331062324799,2.886771757524423
1473,4,4,4,4,3,-4.103495799327924,3.539397269737845
1335,4,0,4,2,4,-3.170419802585096,6.181053623258751
1254,4,4,4,4,4,-5.395490451553712,4.56252987973023
1401,4,4,4,4,4,-2.0751611881854393,4.647450779216835
1226,4,2,4,4,4,-0.6487658536864553,1.7411329726429194
1214,4,4,4,4,4,-1.7838402723151523,4.350187119493477
1411,4,4,4,4,4,-1.790017298919711,3.4839315567255618
1301,4,4,4,4,4,-1.7384404269477116,0.7094749724580098
1284,4,1,4,5,4,-3.892237620185923,4.771006269724095
1478,4,1,4,4,4,-4.092260289251965,5.193324327654111
1626,5,1,5,5,5,2.0153867254391176,-1.2978261870697674
1636,5,3,5,5,5,2.8032658546086555,-4.599353290485101
1682,5,2,3,5,5,1.377497493335564,-5.279692937292461
1678,5,5,4,5,5,2.227850793671785,-4.8658384353988575
1560,5,5,1,5,5,2.209739896651477,-1.3917141879838648
1628,5,2,5,5,5,1.5614919862232837,-4.290305666516541
1643,5,5,5,5,5,0.3026911369697771,-4.444347481597311
1784,5,5,2,5,5,0.8228229064090578,-4.2551834571267495
1601,5,5,5,5,5,-0.0823502480047944,-7.862803940153899
1638,5,4,5,2,5,0.4563305475510271,-2.5403799937755025
1654,5,5,5,5,5,1.9315785758377113,-3.4420666726525324
1620,5,5,5,4,0,3.868919385246522,-6.154960997026873
1697,5,5,5,5,5,-0.2127407245470483,-2.4839594260182927
1547,5,0,5,5,5,1.060912592165265,-5.9952916184867435
1639,5,0,5,5,5,4.9951490023216785,-2.4202001528768333
1512,5,5,5,5,5,3.3495962188573296,-6.367795278911672
1677,5,5,5,5,5,3.7610927807124486,-3.2033029400062034
1788,5,5,5,5,5,3.08863301628682,-0.005909929422882598
1773,5,5,5,5,1,2.6767111847857996,-3.0997496826215616
1599,5,5,5,5,5,2.1965816738261923,-5.318644018399391
1664,5,5,1,5,5,-0.4490421492263388,-2.8994147682174916
1663,5,5,5,5,5,1.62361640482826,-6.664307536015047
1716,5,5,5,3,0,-0.5624811878015246,-1.5550266339882652
1545,5,5,5,5,5,1.9008271610701946,-4.633748075238152
1553,5,5,2,5,5,0.6963836210001322,-4.6873437305537236
1534,5,5,5,5,5,3.7672840467223963,-5.830175735397329
1546,5,2,5,1,5,1.622515461580406,-4.880353967770002
1746,5,5,5,3,1,2.561206996702375,-2.034603094925007
1548,5,5,1,5,5,4.260201093424166,-4.589614593690166
1650,5,2,0,5,5,-0.7785139850425544,-5.069990485588115
1500,5,5,4,5,5,4.3899104239250395,-3.1469164013192925
1758,5,4,5,5,5,3.7196480208017677,-3.8920222075959674
1563,5,5,4,2,5,0.824751104020286,-3.838721452501855
1787,5,1,2,5,5,3.494762076600361,-4.822206201683754
1707,5,5,5,5,4,4.265787097974913,-4.8572176225781485
1559,5,3,5,5,3,7.702490322450673,-0.5272440489910828
1573,5,3,4,5,1,1.782244633710173,-4.804498781798371
1750,5,5,4,0,5,2.507473308838489,-1.8298118891195156
1680,5,5,5,5,5,0.8884166998938059,-3.9099863995643145
1726,5,5,5,5,5,2.4645553840574888,-6.012557415136053
1676,5,5,5,3,5,3.3068964044217886,-3.009143787937632
1581,5,0,5,5,5,-0.49704705908337177,-3.354431672825425
1795,5,5,3,0,5,2.5834879175045717,-5.143058439760641
1564,5,5,5,5,5,2.020976802288914,-4.8684135270878
1675,5,5,5,5,5,3.573320774626989,-3.1470837509336693
1693,5,5,5,5,5,2.0709567500615855,-3.640564128865755
1715,5,2,0,0,5,0.8194508941059713,-4.877156404626202
1793,5,2,5,5,5,2.19578603879741,-6.496859876451465
1538,5,3,5,1,5,1.3612762004541965,-0.9877760809345624
1696,5,5,5,4,5,2.0031125328790496,-2.459799131723549
1507,5,5,5,5,5,-0.2196934229865226,-3.7979691064926437
1514,5,5,5,5,5,1.0610853275473138,-3.2915081707213942
1623,5,5,5,5,5,3.2659833700368432,-3.485535193199596
1550,5,2,5,2,5,3.675485839123025,-4.410333666861744
1768,5,1,5,5,5,1.324577247780305,-6.128851121222006
1586,5,5,5,5,5,2.3069313401294753,-5.029152731742034
1743,5,5,5,4,5,0.1149798077478168,-2.5905784097388254
1699,5,5,0,5,5,0.7613309551230942,-3.8655702132411225
1510,5,5,5,5,5,-2.2160020822437954,-4.22598045703134
1732,5,5,5,5,5,3.2478166775895176,-3.9897082021907533
1644,5,5,5,5,5,-0.5710848890811788,-3.76114869815758
1744,5,5,5,5,5,0.8992749109607325,-4.798656488498424
1785,5,5,5,5,5,1.2736843673916451,-4.491877084465626
1767,5,4,0,5,5,4.740092705991298,-6.184246673084635
1729,5,5,5,1,5,2.042254809784995,-1.0324409501805065
1582,5,3,5,5,5,1.936097107263445,-3.417566779047636
1544,5,5,0,5,5,1.3873168524888375,-2.3431683677919266
1577,5,5,3,5,5,2.5533330613784986,-4.429477421215038
1662,5,5,5,5,5,0.8495554474650076,-2.2359095853193054
1640,5,3,5,5,5,2.4975355183177235,-4.248443174939719
1740,5,5,2,5,5,2.6255808334881863,-4.9118019225842025
1615,5,3,5,5,5,6.322191069745945,-4.890792873074032
1765,5,1,5,1,5,3.2260956445522484,-3.0300765791271127
1539,5,5,5,1,5,3.4068370581040917,-5.279857726412967
1720,5,1,5,3,5,-0.3227065760926915,-2.0328593104750734
1613,5,5,5,5,5,3.621420004782331,-2.665936137767118
1733,5,3,5,5,5,3.686332601670141,-0.5576782506169131
1646,5,5,5,5,5,2.618408407491605,-3.193904879684773
1668,5,4,5,5,5,1.3507590970843841,-3.4375469129453102
1526,5,5,5,5,5,0.48866768632553637,-3.1496959413383934
1738,5,4,5,5,2,1.536795635982125,-3.701990544775503
1797,5,5,5,5,5,4.002974415197885,-4.619912208004058
1528,5,3,5,0,5,1.265776371867454,-2.8546878002711193
